127.0.0.1 - - [05/Jan/2024:14:06:15 +0530] "GET / HTTP/1.1" 404 751
0:0:0:0:0:0:0:1 - - [05/Jan/2024:14:06:16 +0530] "GET /StuWebApp/Login.html HTTP/1.1" 304 -
0:0:0:0:0:0:0:1 - - [05/Jan/2024:14:06:26 +0530] "POST /StuWebApp/Login HTTP/1.1" 200 202
0:0:0:0:0:0:0:1 - - [05/Jan/2024:14:06:43 +0530] "POST /StuWebApp/Login HTTP/1.1" 500 8
127.0.0.1 - - [05/Jan/2024:14:27:34 +0530] "GET / HTTP/1.1" 404 751
0:0:0:0:0:0:0:1 - - [05/Jan/2024:14:27:47 +0530] "POST /StuWebApp/Login HTTP/1.1" 500 8
0:0:0:0:0:0:0:1 - - [05/Jan/2024:14:28:07 +0530] "POST /StuWebApp/Login HTTP/1.1" 200 202
0:0:0:0:0:0:0:1 - - [05/Jan/2024:14:28:11 +0530] "GET /StuWebApp/Logout HTTP/1.1" 304 -
0:0:0:0:0:0:0:1 - - [05/Jan/2024:14:28:38 +0530] "POST /StuWebApp/Login HTTP/1.1" 500 8
127.0.0.1 - - [05/Jan/2024:14:28:59 +0530] "GET / HTTP/1.1" 404 751
0:0:0:0:0:0:0:1 - - [05/Jan/2024:14:29:58 +0530] "POST /StuWebApp/Login HTTP/1.1" 500 8
127.0.0.1 - - [05/Jan/2024:14:30:19 +0530] "GET / HTTP/1.1" 404 751
0:0:0:0:0:0:0:1 - - [05/Jan/2024:14:30:21 +0530] "GET /StuWebApp/Login.html HTTP/1.1" 304 -
0:0:0:0:0:0:0:1 - - [05/Jan/2024:14:30:22 +0530] "GET /favicon.ico HTTP/1.1" 404 762
0:0:0:0:0:0:0:1 - - [05/Jan/2024:14:30:31 +0530] "POST /StuWebApp/Login HTTP/1.1" 500 8
0:0:0:0:0:0:0:1 - - [05/Jan/2024:14:32:56 +0530] "POST /StuWebApp/Login HTTP/1.1" 500 8
0:0:0:0:0:0:0:1 - - [05/Jan/2024:14:33:26 +0530] "GET /StuWebApp/Login.html HTTP/1.1" 304 -
0:0:0:0:0:0:0:1 - - [05/Jan/2024:14:33:26 +0530] "GET /favicon.ico HTTP/1.1" 404 762
0:0:0:0:0:0:0:1 - - [05/Jan/2024:14:33:35 +0530] "POST /StuWebApp/Login HTTP/1.1" 500 8
